
###keys
glock pc[p1] pc[p2] next[p1] next[p2] lock[p1] lock[p2] pred[p1] pred[p2]

###textDisplay

###states
(glock: nop (pc[p1]: rs) (pc[p2]: rs) (next[p1]: nop) (next[p2]: nop) (lock[p1]: false) (lock[p2]: false) (pred[p1]: nop) pred[p2]: nop) || (glock: nop (pc[p1]: l1) (pc[p2]: rs) (next[p1]: nop) (next[p2]: nop) (lock[p1]: false) (lock[p2]: false) (pred[p1]: nop) pred[p2]: nop) || (glock: nop (pc[p1]: l2) (pc[p2]: rs) (next[p1]: nop) (next[p2]: nop) (lock[p1]: false) (lock[p2]: false) (pred[p1]: nop) pred[p2]: nop) || (glock: nop (pc[p1]: l2) (pc[p2]: l1) (next[p1]: nop) (next[p2]: nop) (lock[p1]: false) (lock[p2]: false) (pred[p1]: nop) pred[p2]: nop) || (glock: nop (pc[p1]: l2) (pc[p2]: l2) (next[p1]: nop) (next[p2]: nop) (lock[p1]: false) (lock[p2]: false) (pred[p1]: nop) pred[p2]: nop) || (glock: p2 (pc[p1]: l2) (pc[p2]: l3) (next[p1]: nop) (next[p2]: nop) (lock[p1]: false) (lock[p2]: false) (pred[p1]: nop) pred[p2]: nop) || (glock: p2 (pc[p1]: l2) (pc[p2]: cs) (next[p1]: nop) (next[p2]: nop) (lock[p1]: false) (lock[p2]: false) (pred[p1]: nop) pred[p2]: nop) || (glock: p2 (pc[p1]: l2) (pc[p2]: l7) (next[p1]: nop) (next[p2]: nop) (lock[p1]: false) (lock[p2]: false) (pred[p1]: nop) pred[p2]: nop) || (glock: p2 (pc[p1]: l2) (pc[p2]: l8) (next[p1]: nop) (next[p2]: nop) (lock[p1]: false) (lock[p2]: false) (pred[p1]: nop) pred[p2]: nop) || (glock: p2 (pc[p1]: l2) (pc[p2]: l8') (next[p1]: nop) (next[p2]: nop) (lock[p1]: false) (lock[p2]: false) (pred[p1]: nop) pred[p2]: nop) || (glock: p1 (pc[p1]: l3) (pc[p2]: l8') (next[p1]: nop) (next[p2]: nop) (lock[p1]: false) (lock[p2]: false) (pred[p1]: p2) pred[p2]: nop) || (glock: p1 (pc[p1]: l4) (pc[p2]: l8') (next[p1]: nop) (next[p2]: nop) (lock[p1]: false) (lock[p2]: false) (pred[p1]: p2) pred[p2]: nop) || (glock: p1 (pc[p1]: l5) (pc[p2]: l8') (next[p1]: nop) (next[p2]: nop) (lock[p1]: true) (lock[p2]: false) (pred[p1]: p2) pred[p2]: nop) || (glock: p1 (pc[p1]: l6) (pc[p2]: l8') (next[p1]: nop) (next[p2]: p1) (lock[p1]: true) (lock[p2]: false) (pred[p1]: p2) pred[p2]: nop) || (glock: nop (pc[p1]: l6) (pc[p2]: l9) (next[p1]: nop) (next[p2]: p1) (lock[p1]: true) (lock[p2]: false) (pred[p1]: p2) pred[p2]: nop) || (glock: nop (pc[p1]: l6) (pc[p2]: rs) (next[p1]: nop) (next[p2]: p1) (lock[p1]: true) (lock[p2]: false) (pred[p1]: p2) pred[p2]: nop) || glock: nop (pc[p1]: l6) (pc[p2]: l1) (next[p1]: nop) (next[p2]: p1) (lock[p1]: true) (lock[p2]: false) (pred[p1]: p2) pred[p2]: nop

###loop
(glock: nop (pc[p1]: l6) (pc[p2]: l2) (next[p1]: nop) (next[p2]: nop) (lock[p1]: true) (lock[p2]: false) (pred[p1]: p2) pred[p2]: nop) || (glock: p2 (pc[p1]: l6) (pc[p2]: l3) (next[p1]: nop) (next[p2]: nop) (lock[p1]: true) (lock[p2]: false) (pred[p1]: p2) pred[p2]: nop) || (glock: p2 (pc[p1]: l6) (pc[p2]: cs) (next[p1]: nop) (next[p2]: nop) (lock[p1]: true) (lock[p2]: false) (pred[p1]: p2) pred[p2]: nop) || (glock: p2 (pc[p1]: l6) (pc[p2]: l7) (next[p1]: nop) (next[p2]: nop) (lock[p1]: true) (lock[p2]: false) (pred[p1]: p2) pred[p2]: nop) || (glock: p2 (pc[p1]: l6) (pc[p2]: l8) (next[p1]: nop) (next[p2]: nop) (lock[p1]: true) (lock[p2]: false) (pred[p1]: p2) pred[p2]: nop) || (glock: p2 (pc[p1]: l6) (pc[p2]: l8') (next[p1]: nop) (next[p2]: nop) (lock[p1]: true) (lock[p2]: false) (pred[p1]: p2) pred[p2]: nop) || (glock: nop (pc[p1]: l6) (pc[p2]: l9) (next[p1]: nop) (next[p2]: nop) (lock[p1]: true) (lock[p2]: false) (pred[p1]: p2) pred[p2]: nop) || (glock: nop (pc[p1]: l6) (pc[p2]: rs) (next[p1]: nop) (next[p2]: nop) (lock[p1]: true) (lock[p2]: false) (pred[p1]: p2) pred[p2]: nop) || glock: nop (pc[p1]: l6) (pc[p2]: l1) (next[p1]: nop) (next[p2]: nop) (lock[p1]: true) (lock[p2]: false) (pred[p1]: p2) pred[p2]: nop
